id,name,model_id:id,group_id:id,perm_read,perm_write,perm_create,perm_unlink
access_addons_calyx_register_floaing,addons_calyx.register.floaing,model_addons_calyx_register_floaing,base.group_user,1,1,1,1
access_addons_calyx_brand,addons_calyx.brand,model_addons_calyx_brand,base.group_user,1,1,1,1
access_addons_calyx_report,addons_calyx.report,model_addons_calyx_report,base.group_user,1,1,1,1
